204.33.486/RTL/BSP/DecodingProcessControl/vivado/fsm_communication/fsm_communication.sim/sim_1/behav/xsim/cnu_wr_update.vcd
$date
   Mon Oct 26 23:50:17 2020
$end
$version
  2018.3
$end
$timescale
  1ps
$end
$scope module cnu_wr_update_handshake_tb $end
$var reg 1 ! read_clk $end
$var reg 1 " write_clk $end
$var reg 1 # rstn $end
$var reg 1 $ cnu_wr_o $end
$var reg 1 % iter_update_i $end
$var reg 1 & cnu_rd_finish_i $end
$var reg 1 ' init_load_o $end
$var reg 1 ( pipe_load_o $end
$var reg 1 ) cnu_init_load_en_i $end
$var reg 1 * is_init_load $end
$var reg 10 + i [9:0] $end
$var reg 5 , update_cnt [4:0] $end
$scope module handshake_u0 $end
$var wire 1 - cnu_wr_o $end
$var wire 1 . init_load_o $end
$var wire 1 / pipe_load_o $end
$var wire 1 0 iter_update_i $end
$var wire 1 1 cnu_rd_finish_i $end
$var wire 1 2 cnu_init_load_en_i $end
$var wire 1 3 read_clk $end
$var wire 1 4 rstn $end
$var wire 1 5 iter_update $end
$var reg 2 6 syncIterUp [1:0] $end
$var reg 1 7 cnu_rd_finish $end
$var reg 1 8 cnu_init_load_en $end
$var wire 1 9 sig_0 $end
$var wire 1 : sig_1 $end
$var wire 1 ; sig_2 $end
$var wire 1 < sig_3 $end
$var wire 1 = sig_4 $end
$var wire 1 > sig_5 $end
$var wire 1 ? sig_6 $end
$var wire 1 @ sig_7 $end
$var reg 1 A cnu_wr_reg $end
$var reg 2 B wr_trace [1:0] $end
$var reg 1 C init_load_reg $end
$var reg 1 D pipe_load_reg $end
$var parameter 32 E CDC_DEPTH [31:0] $end
$upscope $end
$scope module cb $end
$var reg 1 " cb_clk $end
$upscope $end
$upscope $end
$enddefinitions $end
#0
$dumpvars
0!
0"
0#
0$
0%
0&
0'
0(
0)
0*
b0 +
b0 ,
0-
0.
0/
00
01
02
03
04
05
b0 6
07
08
19
0:
0;
1<
0=
1>
0?
0@
0A
b0 B
0C
0D
b10 E
$end
#2000
1"
#4000
0"
#5000
1!
13
#6000
1"
#8000
0"
#10000
0!
1"
03
#12000
0"
#14000
1"
#15000
1!
13
#16000
0"
#18000
1"
#20000
0!
0"
1#
03
14
#22000
1"
#24000
0"
#25000
1!
1)
12
13
1?
#26000
1"
#28000
0"
#30000
0!
1"
03
#32000
0"
#34000
1"
#35000
1!
1'
b1 +
1.
13
18
1:
1;
0<
1=
1>
1C
#36000
0"
#38000
1"
#40000
0!
0"
03
#42000
1"
#44000
0"
#45000
1!
1$
b10 +
1-
13
09
0;
0<
0=
0>
0?
1A
#46000
1"
1%
b1 ,
10
15
19
1;
1<
0=
1>
1?
#48000
0"
#50000
0!
1"
b10 ,
03
b1 B
#52000
0"
#54000
1"
b11 ,
#55000
1!
b11 +
13
b1 6
#56000
0"
#58000
1"
b100 ,
#60000
0!
0"
03
b11 B
#62000
1"
b101 ,
#64000
0"
#65000
1!
b0 +
13
b11 6
#66000
1"
b110 ,
#68000
0"
#70000
0!
1"
b111 ,
03
#72000
0"
#74000
1"
b1000 ,
#75000
1!
b1 +
13
#76000
0"
#78000
1"
b1001 ,
#80000
0!
0"
03
#82000
1"
b1010 ,
#84000
0"
#85000
1!
b10 +
13
#86000
1"
b1011 ,
#88000
0"
#90000
0!
1"
b1100 ,
03
#92000
0"
#94000
1"
b1101 ,
#95000
1!
b11 +
13
#96000
0"
#98000
1"
b1110 ,
#100000
0!
0"
03
#102000
1"
b1111 ,
#104000
0"
#105000
1!
b0 +
13
#106000
1"
b10000 ,
#108000
0"
#110000
0!
1"
b10001 ,
03
#112000
0"
#114000
1"
b10010 ,
#115000
1!
b1 +
13
#116000
0"
#118000
1"
b10011 ,
#120000
0!
0"
03
#122000
1"
b10100 ,
#124000
0"
#125000
1!
b10 +
13
#126000
1"
b10101 ,
#128000
0"
#130000
0!
1"
b10110 ,
03
#132000
0"
#134000
1"
b10111 ,
#135000
1!
b11 +
13
#136000
0"
#138000
1"
b11000 ,
#140000
0!
0"
03
#142000
1"
b11001 ,
#144000
0"
#145000
1!
b0 +
13
#146000
1"
b11010 ,
#148000
0"
#150000
0!
1"
b11011 ,
03
#152000
0"
#154000
1"
b11100 ,
#155000
1!
b1 +
13
#156000
0"
#158000
1"
b11101 ,
#160000
0!
0"
03
#162000
1"
b11110 ,
#164000
0"
#165000
1!
b10 +
13
#166000
1"
b11111 ,
#168000
0"
#170000
0!
1"
0%
00
03
05
09
0;
0<
0=
0>
0?
#172000
0"
#174000
1"
#175000
1!
0$
0'
b11 +
0-
0.
13
b10 6
19
0:
0;
1<
0=
1>
1?
0A
0C
#176000
0"
#178000
1"
#180000
0!
0"
03
b10 B
#182000
1"
#184000
0"
#185000
1!
0)
1*
b0 +
02
13
b0 6
0?
#186000
1"
b0 ,
#188000
0"
#190000
0!
1"
03
b0 B
#192000
0"
#194000
1"
#195000
1!
1&
11
13
08
1@
#196000
0"
#198000
1"
#200000
0!
0"
03
#202000
1"
#204000
0"
#205000
1!
1(
b1 +
1/
13
17
1:
1;
0<
1=
1>
1D
#206000
1"
#208000
0"
#210000
0!
1"
03
#212000
0"
#214000
1"
#215000
1!
1$
b10 +
1-
13
09
0;
0<
0=
0>
0@
1A
#216000
0"
#218000
1"
1%
b1 ,
10
15
19
1;
1<
0=
1>
1@
#220000
0!
0"
03
b1 B
#222000
1"
b10 ,
#224000
0"
#225000
1!
b11 +
13
b1 6
#226000
1"
b11 ,
#228000
0"
#230000
0!
1"
b100 ,
03
b11 B
#232000
0"
#234000
1"
b101 ,
#235000
1!
b0 +
13
b11 6
#236000
0"
#238000
1"
b110 ,
#240000
0!
0"
03
#242000
1"
b111 ,
#244000
0"
#245000
1!
b1 +
13
#246000
1"
b1000 ,
#248000
0"
#250000
0!
1"
b1001 ,
03
#252000
0"
#254000
1"
b1010 ,
#255000
1!
b10 +
13
#256000
0"
#258000
1"
b1011 ,
#260000
0!
0"
03
#262000
1"
b1100 ,
#264000
0"
#265000
1!
b11 +
13
#266000
1"
b1101 ,
#268000
0"
#270000
0!
1"
b1110 ,
03
#272000
0"
#274000
1"
b1111 ,
#275000
1!
b0 +
13
#276000
0"
#278000
1"
b10000 ,
#280000
0!
0"
03
#282000
1"
b10001 ,
#284000
0"
#285000
1!
b1 +
13
#286000
1"
b10010 ,
#288000
0"
#290000
0!
1"
b10011 ,
03
#292000
0"
#294000
1"
b10100 ,
#295000
1!
b10 +
13
#296000
0"
#298000
1"
b10101 ,
#300000
0!
0"
03
#302000
1"
b10110 ,
#304000
0"
#305000
1!
b11 +
13
#306000
1"
b10111 ,
#308000
0"
#310000
0!
1"
b11000 ,
03
#312000
0"
#314000
1"
b11001 ,
#315000
1!
b0 +
13
#316000
0"
#318000
1"
b11010 ,
#320000
0!
0"
03
#322000
1"
b11011 ,
#324000
0"
#325000
1!
b1 +
13
#326000
1"
b11100 ,
#328000
0"
#330000
0!
1"
b11101 ,
03
#332000
0"
#334000
1"
b11110 ,
#335000
1!
b10 +
13
#336000
0"
#338000
1"
b11111 ,
#340000
0!
0"
03
#342000
1"
0%
00
05
09
0;
0<
0=
0>
0@
#344000
0"
#345000
1!
0$
0(
b11 +
0-
0/
13
b10 6
19
0:
0;
1<
0=
1>
1@
0A
0D
#346000
1"
b0 ,
#348000
0"
#350000
0!
1"
03
b10 B
#352000
0"
#354000
1"
#355000
1!
0&
0*
b0 +
01
13
b0 6
0@
#356000
0"
#358000
1"
#360000
0!
0"
03
b0 B
#362000
1"
#364000
0"
#365000
1!
1)
12
13
07
1?
#366000
1"
#368000
0"
#370000
0!
1"
03
#372000
0"
#374000
1"
#375000
1!
1'
b1 +
1.
13
18
1:
1;
0<
1=
1>
1C
#376000
0"
#378000
1"
#380000
0!
0"
03
#382000
1"
#384000
0"
#385000
1!
1$
b10 +
1-
13
09
0;
0<
0=
0>
0?
1A
#386000
1"
1%
b1 ,
10
15
19
1;
1<
0=
1>
1?
#388000
0"
#390000
0!
1"
b10 ,
03
b1 B
#392000
0"
#394000
1"
b11 ,
#395000
1!
b11 +
13
b1 6
#396000
0"
#398000
1"
b100 ,
#400000
0!
0"
03
b11 B
#402000
1"
b101 ,
#404000
0"
#405000
1!
b0 +
13
b11 6
#406000
1"
b110 ,
#408000
0"
#410000
0!
1"
b111 ,
03
#412000
0"
#414000
1"
b1000 ,
#415000
1!
b1 +
13
#416000
0"
#418000
1"
b1001 ,
#420000
0!
0"
03
#422000
1"
b1010 ,
#424000
0"
#425000
1!
b10 +
13
#426000
1"
b1011 ,
#428000
0"
#430000
0!
1"
b1100 ,
03
#432000
0"
#434000
1"
b1101 ,
#435000
1!
b11 +
13
#436000
0"
#438000
1"
b1110 ,
#440000
0!
0"
03
#442000
1"
b1111 ,
#444000
0"
#445000
1!
b0 +
13
#446000
1"
b10000 ,
#448000
0"
#450000
0!
1"
b10001 ,
03
#452000
0"
#454000
1"
b10010 ,
#455000
1!
b1 +
13
#456000
0"
#458000
1"
b10011 ,
#460000
0!
0"
03
#462000
1"
b10100 ,
#464000
0"
#465000
1!
b10 +
13
#466000
1"
b10101 ,
#468000
0"
#470000
0!
1"
b10110 ,
03
#472000
0"
#474000
1"
b10111 ,
#475000
1!
b11 +
13
#476000
0"
#478000
1"
b11000 ,
#480000
0!
0"
03
#482000
1"
b11001 ,
#484000
0"
#485000
1!
b0 +
13
#486000
1"
b11010 ,
#488000
0"
#490000
0!
1"
b11011 ,
03
#492000
0"
#494000
1"
b11100 ,
#495000
1!
b1 +
13
#496000
0"
#498000
1"
b11101 ,
#500000
0!
0"
03
#502000
1"
b11110 ,
#504000
0"
#505000
1!
b10 +
13
#506000
1"
b11111 ,
#508000
0"
#510000
0!
1"
0%
00
03
05
09
0;
0<
0=
0>
0?
#512000
0"
#514000
1"
#515000
1!
0$
0'
b11 +
0-
0.
13
b10 6
19
0:
0;
1<
0=
1>
1?
0A
0C
#516000
0"
#518000
1"
#520000
0!
0"
03
b10 B
#522000
1"
#524000
0"
#525000
1!
0)
1*
b0 +
02
13
b0 6
0?
#526000
1"
b0 ,
#528000
0"
#530000
0!
1"
03
b0 B
#532000
0"
#534000
1"
#535000
1!
1&
11
13
08
1@
#536000
0"
#538000
1"
#540000
0!
0"
03
#542000
1"
#544000
0"
#545000
1!
1(
b1 +
1/
13
17
1:
1;
0<
1=
1>
1D
#546000
1"
#548000
0"
#550000
0!
1"
03
#552000
0"
#554000
1"
#555000
1!
1$
b10 +
1-
13
09
0;
0<
0=
0>
0@
1A
#556000
0"
#558000
1"
1%
b1 ,
10
15
19
1;
1<
0=
1>
1@
#560000
0!
0"
03
b1 B
#562000
1"
b10 ,
#564000
0"
#565000
1!
b11 +
13
b1 6
#566000
1"
b11 ,
#568000
0"
#570000
0!
1"
b100 ,
03
b11 B
#572000
0"
#574000
1"
b101 ,
#575000
1!
b0 +
13
b11 6
#576000
0"
#578000
1"
b110 ,
#580000
0!
0"
03
#582000
1"
b111 ,
#584000
0"
#585000
1!
b1 +
13
#586000
1"
b1000 ,
#588000
0"
#590000
0!
1"
b1001 ,
03
#592000
0"
#594000
1"
b1010 ,
#595000
1!
b10 +
13
#596000
0"
#598000
1"
b1011 ,
#600000
0!
0"
03
#602000
1"
b1100 ,
#604000
0"
#605000
1!
b11 +
13
#606000
1"
b1101 ,
#608000
0"
#610000
0!
1"
b1110 ,
03
#612000
0"
#614000
1"
b1111 ,
#615000
1!
b0 +
13
#616000
0"
#618000
1"
b10000 ,
#620000
0!
0"
03
#622000
1"
b10001 ,
#624000
0"
#625000
1!
b1 +
13
#626000
1"
b10010 ,
#628000
0"
#630000
0!
1"
b10011 ,
03
#632000
0"
#634000
1"
b10100 ,
#635000
1!
b10 +
13
#636000
0"
#638000
1"
b10101 ,
#640000
0!
0"
03
#642000
1"
b10110 ,
#644000
0"
#645000
1!
b11 +
13
#646000
1"
b10111 ,
#648000
0"
#650000
0!
1"
b11000 ,
03
#652000
0"
#654000
1"
b11001 ,
#655000
1!
b0 +
13
#656000
0"
#658000
1"
b11010 ,
#660000
0!
0"
03
#662000
1"
b11011 ,
#664000
0"
#665000
1!
b1 +
13
#666000
1"
b11100 ,
#668000
0"
#670000
0!
1"
b11101 ,
03
#672000
0"
#674000
1"
b11110 ,
#675000
1!
b10 +
13
#676000
0"
#678000
1"
b11111 ,
#680000
0!
0"
03
#682000
1"
0%
00
05
09
0;
0<
0=
0>
0@
#684000
0"
#685000
1!
0$
0(
b11 +
0-
0/
13
b10 6
19
0:
0;
1<
0=
1>
1@
0A
0D
#686000
1"
b0 ,
#688000
0"
#690000
0!
1"
03
b10 B
#692000
0"
#694000
1"
#695000
1!
0&
0*
b0 +
01
13
b0 6
0@
#696000
0"
#698000
1"
#700000
0!
0"
03
b0 B
#702000
1"
#704000
0"
#705000
1!
1)
12
13
07
1?
#706000
1"
#708000
0"
#710000
0!
1"
03
#712000
0"
#714000
1"
#715000
1!
1'
b1 +
1.
13
18
1:
1;
0<
1=
1>
1C
#716000
0"
#718000
1"
#720000
0!
0"
03
#722000
1"
#724000
0"
#725000
1!
1$
b10 +
1-
13
09
0;
0<
0=
0>
0?
1A
#726000
1"
1%
b1 ,
10
15
19
1;
1<
0=
1>
1?
#728000
0"
#730000
0!
1"
b10 ,
03
b1 B
#732000
0"
#734000
1"
b11 ,
#735000
1!
b11 +
13
b1 6
#736000
0"
#738000
1"
b100 ,
#740000
0!
0"
03
b11 B
#742000
1"
b101 ,
#744000
0"
#745000
1!
b0 +
13
b11 6
#746000
1"
b110 ,
#748000
0"
#750000
0!
1"
b111 ,
03
#752000
0"
#754000
1"
b1000 ,
#755000
1!
b1 +
13
#756000
0"
#758000
1"
b1001 ,
#760000
0!
0"
03
#762000
1"
b1010 ,
#764000
0"
#765000
1!
b10 +
13
#766000
1"
b1011 ,
#768000
0"
#770000
0!
1"
b1100 ,
03
#772000
0"
#774000
1"
b1101 ,
#775000
1!
b11 +
13
#776000
0"
#778000
1"
b1110 ,
#780000
0!
0"
03
#782000
1"
b1111 ,
#784000
0"
#785000
1!
b0 +
13
#786000
1"
b10000 ,
#788000
0"
#790000
0!
1"
b10001 ,
03
#792000
0"
#794000
1"
b10010 ,
#795000
1!
b1 +
13
#796000
0"
#798000
1"
b10011 ,
